D:\appium_test_suite\goosegame\src\main\java\goosegame\Utils\Utility.java
D:\appium_test_suite\goosegame\src\main\java\goosegame\dati\Player.java
D:\appium_test_suite\goosegame\src\main\java\goosegame\core\Application.java
D:\appium_test_suite\goosegame\src\main\java\goosegame\core\Test.java
D:\appium_test_suite\goosegame\src\main\java\goosegame\core\GameController.java
